<?xml version="1.0" encoding="UTF-8"?>
<svg width="332px" height="78px" viewBox="0 0 332 78" version="1.1" xmlns="http://www.w3.org/2000/svg" xmlns:xlink="http://www.w3.org/1999/xlink">
    <g id="Page-1" stroke="none" stroke-width="1" fill="none" fill-rule="evenodd">
        <path d="M27.9658796,57.0298286 C10.8139073,57.0298286 0.409087658,45.7017144 0.409087658,28.9048554 C0.409087658,12.0724851 10.8139073,0.744370878 27.9658796,0.744370878 C45.1178518,0.744370878 55.5226715,12.0724851 55.5226715,28.9048554 C55.5226715,45.7017144 45.1178518,57.0298286 27.9658796,57.0298286 Z M28.0724135,43.9261479 C34.2868963,43.9261479 37.8380292,37.8181992 37.8380292,28.7983214 C37.8380292,19.7429323 34.2868963,13.5994723 28.0724135,13.5994723 C21.6448629,13.5994723 18.0937299,19.7429323 18.0937299,28.7983214 C18.0937299,37.8181992 21.6448629,43.9261479 28.0724135,43.9261479 Z M62.4360743,56 L62.4360743,1.45459747 L79.3039559,1.45459747 L79.3039559,11.3977698 L79.8721372,11.3977698 C81.8607717,4.18896987 86.6192899,0.708859548 92.5851933,0.708859548 C94.1832031,0.708859548 95.9942809,0.957438856 97.4502454,1.34806348 L97.4502454,16.4403786 C95.781213,15.8721974 92.6917273,15.5170841 90.6320701,15.5170841 C84.4175874,15.5170841 79.8011146,19.8849776 79.8011146,26.383551 L79.8011146,56 L62.4360743,56 Z M115.869298,56.9232946 C105.428967,56.9232946 97.9360767,51.6676178 97.9360767,40.8721735 C97.9360767,28.7983214 107.169022,24.7145185 118.213046,23.7912239 C127.517014,22.9744633 131.13917,22.2642367 131.13917,18.9261717 L131.13917,18.7486151 C131.13917,15.0909481 128.440309,13.031291 124.178949,13.031291 C119.597988,13.031291 116.72157,15.1619708 115.975832,18.6420811 L99.9602225,18.0738998 C101.345164,8.13072747 109.654816,0.744370878 124.320995,0.744370878 C138.205925,0.744370878 148.468699,7.38498954 148.468699,18.9261717 L148.468699,56 L132.133487,56 L132.133487,48.4005754 L131.707351,48.4005754 C128.7244,53.9758542 123.468723,56.9232946 115.869298,56.9232946 Z M121.231509,45.559669 C126.771277,45.559669 131.245704,41.9375134 131.245704,36.6108139 L131.245704,31.4261598 C129.292581,32.4559884 125.315312,33.166215 122.083781,33.6278622 C117.147706,34.3736002 114.377822,36.50428 114.377822,40.0199016 C114.377822,43.6420572 117.218729,45.559669 121.231509,45.559669 Z M174.416171,24.8920751 L174.416171,56 L157.051131,56 L157.051131,1.45459747 L173.563899,1.45459747 L173.563899,11.4687925 L174.167592,11.4687925 C176.582362,4.8281738 182.690311,0.744370878 190.751383,0.744370878 C202.221543,0.744370878 209.714433,8.94748805 209.678922,21.2344082 L209.679048,56 L192.313882,56 L192.313882,24.6434958 C192.349393,18.6065698 189.082351,14.9844141 183.578094,14.9844141 C178.073838,14.9844141 174.451683,18.6775924 174.416171,24.8920751 Z M243.900539,77.1292412 C228.346576,77.1292412 219.36221,70.0624866 218.083802,60.9715862 L234.525548,60.0482916 C235.448842,62.9602206 238.786907,65.0909004 244.362186,65.0909004 C250.186044,65.0909004 254.447404,62.6051073 254.447404,56.0710227 L254.447404,46.4829636 L253.843711,46.4829636 C251.784054,51.5255724 246.421843,55.2542621 238.396283,55.2542621 C226.428964,55.2542621 216.592326,47.1931902 216.592326,28.6562761 C216.592326,9.51566933 226.926123,0.744370878 238.32526,0.744370878 C246.919002,0.744370878 251.67752,5.78697971 253.772688,10.7940772 L254.269847,10.7940772 L254.269847,1.45459747 L271.563865,1.45459747 L271.563865,56.213068 C271.563865,69.6363506 260.342284,77.1292412 243.900539,77.1292412 Z M244.433209,42.6122287 C250.754225,42.6122287 254.482915,37.4275745 254.482915,28.6562761 C254.482915,19.813955 250.789737,14.3096988 244.433209,14.3096988 C237.970147,14.3096988 234.419014,19.9560003 234.419014,28.6562761 C234.419014,37.3920632 238.005658,42.6122287 244.433209,42.6122287 Z M306.105084,57.0298286 C288.953112,57.0298286 278.512781,46.411941 278.512781,28.9403667 C278.512781,12.0369737 289.095157,0.744370878 305.572414,0.744370878 C321.055354,0.744370878 331.992843,10.6165206 331.992843,28.5852534 L331.992843,32.9176356 L295.629242,32.9176356 L295.629242,33.3792829 C295.629242,40.0554129 299.748556,44.4943292 306.424686,44.4943292 C310.970136,44.4943292 314.521269,42.541206 315.8707,38.9190504 L331.815287,39.3806977 C329.826652,50.1051193 320.41615,57.0298286 306.105084,57.0298286 Z M295.629242,22.832418 L315.835188,22.832418 C315.764166,17.2571392 311.644852,13.2798703 305.927527,13.2798703 C300.174692,13.2798703 295.877821,17.3991845 295.629242,22.832418 Z" id="orange" fill="#F9703E" fill-rule="nonzero"></path>
    </g>
</svg>